{
  "name": "Log",
  "base": "PersistedModel",
  "idInjection": false,
  "options": {
    "validateUpsert": true
  },
  "properties": {
    "id": {
      "type": "string",
      "id": true,
      "defaultFn": "guid"
    },
    "type": {
      "type": "string",
      "required": true
    },
    "job_id": {
      "type": "string"
    },
    "status": {
      "type": "string"
    },
    "error": {
      "type": "string"
    }
  },
  "validations": [],
  "relations": {},
  "acls": [
    {
      "accessType": "*",
      "principalType": "ROLE",
      "principalId": "$everyone",
      "permission": "DENY"
    },
    {
      "accessType": "*",
      "principalType": "ROLE",
      "principalId": "$authenticated",
      "permission": "ALLOW"
    },
    {
      "accessType": "EXECUTE",
      "principalType": "ROLE",
      "principalId": "$everyone",
      "permission": "ALLOW",
      "property": "emails"
    }
  ],
  "methods": {
    "emails": {
      "accepts": [
        {
          "arg": "options",
          "type": "object",
          "http": "optionsFromRequest"
        }
      ],
      "returns": {
        "arg": "data",
        "type": "object",
        "root": true
      },
      "description": "Get the email report for every day",
      "http": [
        {
          "path": "/emails",
          "verb": "get"
        }
      ]
    }
  }
}
