{
  "_meta": {
    "sources": [
      "loopback/common/models",
      "loopback/server/models",
      "../common/models",
      "./models"
    ],
    "mixins": [
      "loopback/common/mixins",
      "loopback/server/mixins",
      "../common/mixins",
      "./mixins"
    ]
  },
  "User": {
    "dataSource": "db"
  },
  "AccessToken": {
    "dataSource": "db",
    "public": false
  },
  "ACL": {
    "dataSource": "db",
    "public": false
  },
  "RoleMapping": {
    "dataSource": "db",
    "public": false,
    "options": {
      "strictObjectIDCoercion": true
    }
  },
  "Role": {
    "dataSource": "db",
    "public": false
  },
  "demand": {
    "dataSource": "mongodb",
    "public": true
  },
  "employee": {
    "dataSource": "mongodb",
    "public": true
  },
  "container": {
    "dataSource": "storage",
    "public": true
  },
  "attachment": {
    "dataSource": "mongodb",
    "public": true
  },
  "resource": {
    "dataSource": "mongodb",
    "public": true
  },
  "trust": {
    "dataSource": "mongodb",
    "public": true
  },
  "event": {
    "dataSource": "mongodb",
    "public": true
  },
  "iteration": {
    "dataSource": "mongodb",
    "public": true
  },
  "Log": {
    "dataSource": "mongodb",
    "public": true
  },
  "reader": {
    "dataSource": "db",
    "public": false
  },
  "loader": {
    "dataSource": "db",
    "public": false
  }
}
