[
     {
        "type": "SUBCATEGORY",
        "locale": "en",
        "key": "OED",
        "label": "OED",
        "parentId": "APEX",
        "status": "ACTIVE"
    },
     {
        "type": "SUBCATEGORY",
        "locale": "en",
        "key": "OIG",
        "label": "OIG",
        "parentId": "APEX",
        "status": "ACTIVE"
    },
     {
        "type": "SUBCATEGORY",
        "locale": "en",
        "key": "LEG",
        "label": "LEG",
        "parentId": "APEX",
        "status": "ACTIVE"
    },
     {
        "type": "SUBCATEGORY",
        "locale": "en",
        "key": "OSP",
        "label": "OSP",
        "parentId": "APEX",
        "status": "ACTIVE"
    },
     {
        "type": "SUBCATEGORY",
        "locale": "en",
        "key": "OCC",
        "label": "OCC",
        "parentId": "APEX",
        "status": "ACTIVE"
    },
     {
        "type": "SUBCATEGORY",
        "locale": "en",
        "key": "OHR",
        "label": "OHR",
        "parentId": "APEX",
        "status": "ACTIVE"
    },
     {
        "type": "SUBCATEGORY",
        "locale": "en",
        "key": "CAB",
        "label": "CAB",
        "parentId": "APEX",
        "status": "ACTIVE"
    },
     {
        "type": "SUBCATEGORY",
        "locale": "en",
        "key": "DDOD",
        "label": "DDOD",
        "parentId": "DDO",
        "status": "ACTIVE"
    },
     {
        "type": "SUBCATEGORY",
        "locale": "en",
        "key": "DDOS",
        "label": "DDOS",
        "parentId": "DDO",
        "status": "ACTIVE"
    },
     {
        "type": "SUBCATEGORY",
        "locale": "en",
        "key": "CSD",
        "label": "CSD",
        "parentId": "DDO",
        "status": "ACTIVE"
    },
     {
        "type": "SUBCATEGORY",
        "locale": "en",
        "key": "CSF",
        "label": "CSF",
        "parentId": "DDO",
        "status": "ACTIVE"
    },
     {
        "type": "SUBCATEGORY",
        "locale": "en",
        "key": "CSA",
        "label": "CSA",
        "parentId": "DDO",
        "status": "ACTIVE"
    },
     {
        "type": "SUBCATEGORY",
        "locale": "en",
        "key": "CSS",
        "label": "CSS",
        "parentId": "DDO",
        "status": "ACTIVE"
    },
     {
        "type": "SUBCATEGORY",
        "locale": "en",
        "key": "CPA",
        "label": "CPA",
        "parentId": "DDO",
        "status": "ACTIVE"
    },
     {
        "type": "SUBCATEGORY",
        "locale": "en",
        "key": "CIO",
        "label": "CIO",
        "parentId": "DDO",
        "status": "ACTIVE"
    },
     {
        "type": "SUBCATEGORY",
        "locale": "en",
        "key": "OSD",
        "label": "OSD",
        "parentId": "DDO",
        "status": "ACTIVE"
    },
     {
        "type": "SUBCATEGORY",
        "locale": "en",
        "key": "ROs",
        "label": "ROs",
        "parentId": "DDO",
        "status": "ACTIVE"
    },
     {
        "type": "SUBCATEGORY",
        "locale": "en",
        "key": "DDND",
        "label": "DDND",
        "parentId": "DDN",
        "status": "ACTIVE"
    },
     {
        "type": "SUBCATEGORY",
        "locale": "en",
        "key": "FI",
        "label": "FI",
        "parentId": "DDN",
        "status": "ACTIVE"
    },
     {
        "type": "SUBCATEGORY",
        "locale": "en",
        "key": "FO",
        "label": "FO",
        "parentId": "DDN",
        "status": "ACTIVE"
    },
     {
        "type": "SUBCATEGORY",
        "locale": "en",
        "key": "CB",
        "label": "CB",
        "parentId": "DDN",
        "status": "ACTIVE"
    },
     {
        "type": "SUBCATEGORY",
        "locale": "en",
        "key": "AG",
        "label": "AG",
        "parentId": "DDN",
        "status": "ACTIVE"
    },
     {
        "type": "SUBCATEGORY",
        "locale": "en",
        "key": "DDPD",
        "label": "DDPD",
        "parentId": "DDP",
        "status": "ACTIVE"
    },
     {
        "type": "SUBCATEGORY",
        "locale": "en",
        "key": "OCS",
        "label": "OCS",
        "parentId": "DDP",
        "status": "ACTIVE"
    },
    {
        "type": "SUBCATEGORY",
        "locale": "en",
        "key": "OPC",
        "label": "OPC",
        "parentId": "DDP",
        "status": "ACTIVE"
    },
    {
        "type": "SUBCATEGORY",
        "locale": "en",
        "key": "TC",
        "label": "TC",
        "parentId": "DDP",
        "status": "ACTIVE"
    },
    {
        "type": "SUBCATEGORY",
        "locale": "en",
        "key": "LOs",
        "label": "LOs",
        "parentId": "DDP",
        "status": "ACTIVE"
    },
    {
        "type": "SUBCATEGORY",
        "locale": "en",
        "key": "ESD",
        "label": "ESD",
        "parentId": "ES",
        "status": "ACTIVE"
    },
     {
        "type": "SUBCATEGORY",
        "locale": "en",
        "key": "ESA",
        "label": "ESA",
        "parentId": "ES",
        "status": "ACTIVE"
    },
     {
        "type": "SUBCATEGORY",
        "locale": "en",
        "key": "ESP",
        "label": "ESP",
        "parentId": "ES",
        "status": "ACTIVE"
    },
     {
        "type": "SUBCATEGORY",
        "locale": "en",
        "key": "EST",
        "label": "EST",
        "parentId": "ES",
        "status": "ACTIVE"
    },
     {
        "type": "SUBCATEGORY",
        "locale": "en",
        "key": "ESS",
        "label": "ESS",
        "parentId": "ES",
        "status": "ACTIVE"
    },
     {
        "type": "SUBCATEGORY",
        "locale": "en",
        "key": "ESN",
        "label": "ESN",
        "parentId": "ES",
        "status": "ACTIVE"
    },
    {
        "type": "SUBCATEGORY",
        "locale": "en",
        "key": "SP1D",
        "label": "SP1D",
        "parentId": "SP1",
        "status": "ACTIVE"
    },
     {
        "type": "SUBCATEGORY",
        "locale": "en",
        "key": "SP2D",
        "label": "SP2D",
        "parentId": "SP2",
        "status": "ACTIVE"
    },
     {
        "type": "SUBCATEGORY",
        "locale": "en",
        "key": "SP3D",
        "label": "SP3D",
        "parentId": "SP3",
        "status": "ACTIVE"
    },
     {
        "type": "SUBCATEGORY",
        "locale": "en",
        "key": "SP4D",
        "label": "SP4D",
        "parentId": "SP4",
        "status": "ACTIVE"
    },
     {
        "type": "SUBCATEGORY",
        "locale": "en",
        "key": "SP5D",
        "label": "SP5D",
        "parentId": "SP5",
        "status": "ACTIVE"
    }
    


]